{
  "swagger": "2.0",
  "info": {
    "description": "This page lists all the REST APIs for CatchBus",
    "version": "1.0",
    "title": "CatchBus API Documentation"
  },
  "host": "localhost:8080",
  "basePath": "/",
  "tags": [
    {
      "name": "bus-controller",
      "description": "Bus Controller"
    }
  ],
  "paths": {
    "/api/v1/tickets": {
      "get": {
        "tags": [
          "bus-controller"
        ],
        "summary": "getTicketsWithStatus",
        "operationId": "getTicketsWithStatusUsingGET",
        "produces": [
          "*/*"
        ],
        "parameters": [
          {
            "name": "open",
            "in": "query",
            "description": "open",
            "required": true,
            "type": "boolean"
          }
        ],
        "responses": {
          "200": {
            "description": "OK",
            "schema": {
              "type": "array",
              "items": {
                "$ref": "#/definitions/TicketResponse"
              }
            }
          },
          "401": {
            "description": "Unauthorized"
          },
          "403": {
            "description": "Forbidden"
          },
          "404": {
            "description": "Not Found"
          }
        },
        "deprecated": false
      },
      "put": {
        "tags": [
          "bus-controller"
        ],
        "summary": "resetTickets",
        "operationId": "resetTicketsUsingPUT",
        "consumes": [
          "application/json"
        ],
        "produces": [
          "*/*"
        ],
        "parameters": [
          {
            "name": "open",
            "in": "query",
            "description": "open",
            "required": true,
            "type": "boolean"
          }
        ],
        "responses": {
          "200": {
            "description": "OK",
            "schema": {
              "type": "string",
              "enum": [
                "100 CONTINUE",
                "101 SWITCHING_PROTOCOLS",
                "102 PROCESSING",
                "103 CHECKPOINT",
                "200 OK",
                "201 CREATED",
                "202 ACCEPTED",
                "203 NON_AUTHORITATIVE_INFORMATION",
                "204 NO_CONTENT",
                "205 RESET_CONTENT",
                "206 PARTIAL_CONTENT",
                "207 MULTI_STATUS",
                "208 ALREADY_REPORTED",
                "226 IM_USED",
                "300 MULTIPLE_CHOICES",
                "301 MOVED_PERMANENTLY",
                "302 FOUND",
                "302 MOVED_TEMPORARILY",
                "303 SEE_OTHER",
                "304 NOT_MODIFIED",
                "305 USE_PROXY",
                "307 TEMPORARY_REDIRECT",
                "308 PERMANENT_REDIRECT",
                "400 BAD_REQUEST",
                "401 UNAUTHORIZED",
                "402 PAYMENT_REQUIRED",
                "403 FORBIDDEN",
                "404 NOT_FOUND",
                "405 METHOD_NOT_ALLOWED",
                "406 NOT_ACCEPTABLE",
                "407 PROXY_AUTHENTICATION_REQUIRED",
                "408 REQUEST_TIMEOUT",
                "409 CONFLICT",
                "410 GONE",
                "411 LENGTH_REQUIRED",
                "412 PRECONDITION_FAILED",
                "413 PAYLOAD_TOO_LARGE",
                "413 REQUEST_ENTITY_TOO_LARGE",
                "414 URI_TOO_LONG",
                "414 REQUEST_URI_TOO_LONG",
                "415 UNSUPPORTED_MEDIA_TYPE",
                "416 REQUESTED_RANGE_NOT_SATISFIABLE",
                "417 EXPECTATION_FAILED",
                "418 I_AM_A_TEAPOT",
                "419 INSUFFICIENT_SPACE_ON_RESOURCE",
                "420 METHOD_FAILURE",
                "421 DESTINATION_LOCKED",
                "422 UNPROCESSABLE_ENTITY",
                "423 LOCKED",
                "424 FAILED_DEPENDENCY",
                "426 UPGRADE_REQUIRED",
                "428 PRECONDITION_REQUIRED",
                "429 TOO_MANY_REQUESTS",
                "431 REQUEST_HEADER_FIELDS_TOO_LARGE",
                "451 UNAVAILABLE_FOR_LEGAL_REASONS",
                "500 INTERNAL_SERVER_ERROR",
                "501 NOT_IMPLEMENTED",
                "502 BAD_GATEWAY",
                "503 SERVICE_UNAVAILABLE",
                "504 GATEWAY_TIMEOUT",
                "505 HTTP_VERSION_NOT_SUPPORTED",
                "506 VARIANT_ALSO_NEGOTIATES",
                "507 INSUFFICIENT_STORAGE",
                "508 LOOP_DETECTED",
                "509 BANDWIDTH_LIMIT_EXCEEDED",
                "510 NOT_EXTENDED",
                "511 NETWORK_AUTHENTICATION_REQUIRED"
              ]
            }
          },
          "201": {
            "description": "Created"
          },
          "401": {
            "description": "Unauthorized"
          },
          "403": {
            "description": "Forbidden"
          },
          "404": {
            "description": "Not Found"
          }
        },
        "deprecated": false
      }
    },
    "/api/v1/tickets/{ticketId}": {
      "get": {
        "tags": [
          "bus-controller"
        ],
        "summary": "getTicketStatus",
        "operationId": "getTicketStatusUsingGET",
        "produces": [
          "*/*"
        ],
        "parameters": [
          {
            "name": "ticketId",
            "in": "path",
            "description": "ticketId",
            "required": true,
            "type": "integer",
            "format": "int32"
          }
        ],
        "responses": {
          "200": {
            "description": "OK",
            "schema": {
              "$ref": "#/definitions/TicketResponse"
            }
          },
          "401": {
            "description": "Unauthorized"
          },
          "403": {
            "description": "Forbidden"
          },
          "404": {
            "description": "Not Found"
          }
        },
        "deprecated": false
      },
      "post": {
        "tags": [
          "bus-controller"
        ],
        "summary": "postTicketBooking",
        "operationId": "postTicketBookingUsingPOST",
        "consumes": [
          "application/json"
        ],
        "produces": [
          "*/*"
        ],
        "parameters": [
          {
            "name": "open",
            "in": "query",
            "description": "open",
            "required": true,
            "type": "boolean"
          },
          {
            "in": "body",
            "name": "person",
            "description": "person",
            "required": true,
            "schema": {
              "$ref": "#/definitions/PersonDetails"
            }
          },
          {
            "name": "ticketId",
            "in": "path",
            "description": "ticketId",
            "required": true,
            "type": "integer",
            "format": "int32"
          }
        ],
        "responses": {
          "200": {
            "description": "OK",
            "schema": {
              "$ref": "#/definitions/TicketCreationResponse"
            }
          },
          "201": {
            "description": "Created"
          },
          "401": {
            "description": "Unauthorized"
          },
          "403": {
            "description": "Forbidden"
          },
          "404": {
            "description": "Not Found"
          }
        },
        "deprecated": false
      },
      "put": {
        "tags": [
          "bus-controller"
        ],
        "summary": "resetTicketBooking",
        "operationId": "resetTicketBookingUsingPUT",
        "consumes": [
          "application/json"
        ],
        "produces": [
          "*/*"
        ],
        "parameters": [
          {
            "name": "open",
            "in": "query",
            "description": "open",
            "required": true,
            "type": "boolean"
          },
          {
            "name": "ticketId",
            "in": "path",
            "description": "ticketId",
            "required": true,
            "type": "integer",
            "format": "int32"
          }
        ],
        "responses": {
          "200": {
            "description": "OK",
            "schema": {
              "$ref": "#/definitions/TicketResponse"
            }
          },
          "201": {
            "description": "Created"
          },
          "401": {
            "description": "Unauthorized"
          },
          "403": {
            "description": "Forbidden"
          },
          "404": {
            "description": "Not Found"
          }
        },
        "deprecated": false
      }
    },
    "/api/v1/tickets/{ticketId}/persons": {
      "get": {
        "tags": [
          "bus-controller"
        ],
        "summary": "getPersonDetailsOfTicket",
        "operationId": "getPersonDetailsOfTicketUsingGET",
        "produces": [
          "*/*"
        ],
        "parameters": [
          {
            "name": "ticketId",
            "in": "path",
            "description": "ticketId",
            "required": true,
            "type": "integer",
            "format": "int32"
          }
        ],
        "responses": {
          "200": {
            "description": "OK",
            "schema": {
              "$ref": "#/definitions/Person"
            }
          },
          "401": {
            "description": "Unauthorized"
          },
          "403": {
            "description": "Forbidden"
          },
          "404": {
            "description": "Not Found"
          }
        },
        "deprecated": false
      }
    }
  },
  "definitions": {
    "Person": {
      "type": "object",
      "required": [
        "fname",
        "id",
        "lname",
        "phoneNumber"
      ],
      "properties": {
        "fname": {
          "type": "string"
        },
        "id": {
          "type": "integer",
          "format": "int32"
        },
        "lname": {
          "type": "string"
        },
        "phoneNumber": {
          "type": "string"
        }
      },
      "title": "Person"
    },
    "PersonDetails": {
      "type": "object",
      "required": [
        "fname",
        "lname",
        "phoneNumber"
      ],
      "properties": {
        "fname": {
          "type": "string"
        },
        "lname": {
          "type": "string"
        },
        "phoneNumber": {
          "type": "string"
        }
      },
      "title": "PersonDetails"
    },
    "TicketCreationResponse": {
      "type": "object",
      "required": [
        "bookingId",
        "personDetails",
        "ticketId",
        "ticketStatus"
      ],
      "properties": {
        "bookingId": {
          "type": "integer",
          "format": "int32"
        },
        "personDetails": {
          "$ref": "#/definitions/Person"
        },
        "ticketId": {
          "type": "integer",
          "format": "int32"
        },
        "ticketStatus": {
          "type": "string",
          "enum": [
            "OPEN",
            "CLOSED"
          ]
        }
      },
      "title": "TicketCreationResponse"
    },
    "TicketResponse": {
      "type": "object",
      "required": [
        "id",
        "ticketStatus"
      ],
      "properties": {
        "id": {
          "type": "integer",
          "format": "int32"
        },
        "ticketStatus": {
          "type": "string",
          "enum": [
            "OPEN",
            "CLOSED"
          ]
        }
      },
      "title": "TicketResponse"
    }
  }
}