{
	"info": {
		"name": "CatchBus",
		"_postman_id": "48686222-bacc-be58-0f43-840592babbe1",
		"description": "",
		"schema": "https://schema.getpostman.com/json/collection/v2.1.0/collection.json"
	},
	"item": [
		{
			"name": "View All Tickets With Status",
			"request": {
				"auth": {
					"type": "bearer",
					"bearer": [
						{
							"key": "token",
							"value": "eyJhbGciOiJIUzI1NiIsInR5cCI6IkpXVCJ9.eyJyb2xlIjoiVVNFUiJ9.Bibp8a-_pYZyitTT2Jy41pD12GESwe4x6EiJ1OGVkAI",
							"type": "string"
						}
					]
				},
				"method": "GET",
				"header": [],
				"body": {},
				"url": {
					"raw": "http://localhost:8080/api/v1/tickets?open=true",
					"protocol": "http",
					"host": [
						"localhost"
					],
					"port": "8080",
					"path": [
						"api",
						"v1",
						"tickets"
					],
					"query": [
						{
							"key": "open",
							"value": "true",
							"equals": true
						}
					]
				},
				"description": ""
			},
			"response": []
		},
		{
			"name": "Get Status Of A Ticket",
			"request": {
				"auth": {
					"type": "bearer",
					"bearer": [
						{
							"key": "token",
							"value": "eyJhbGciOiJIUzI1NiIsInR5cCI6IkpXVCJ9.eyJyb2xlIjoiVVNFUiJ9.Bibp8a-_pYZyitTT2Jy41pD12GESwe4x6EiJ1OGVkAI",
							"type": "string"
						}
					]
				},
				"method": "GET",
				"header": [],
				"body": {},
				"url": {
					"raw": "http://localhost:8080/api/v1/tickets/17",
					"protocol": "http",
					"host": [
						"localhost"
					],
					"port": "8080",
					"path": [
						"api",
						"v1",
						"tickets",
						"17"
					]
				},
				"description": ""
			},
			"response": []
		},
		{
			"name": "Get Details of The Person Owning the Ticket",
			"request": {
				"auth": {
					"type": "bearer",
					"bearer": [
						{
							"key": "token",
							"value": "eyJhbGciOiJIUzI1NiIsInR5cCI6IkpXVCJ9.eyJyb2xlIjoiVVNFUiJ9.Bibp8a-_pYZyitTT2Jy41pD12GESwe4x6EiJ1OGVkAI",
							"type": "string"
						}
					]
				},
				"method": "GET",
				"header": [],
				"body": {},
				"url": {
					"raw": "http://localhost:8080/api/v1/tickets/17/persons",
					"protocol": "http",
					"host": [
						"localhost"
					],
					"port": "8080",
					"path": [
						"api",
						"v1",
						"tickets",
						"17",
						"persons"
					]
				},
				"description": ""
			},
			"response": []
		},
		{
			"name": "Close Ticket Booking With New/Existing User",
			"request": {
				"auth": {
					"type": "bearer",
					"bearer": [
						{
							"key": "token",
							"value": "eyJhbGciOiJIUzI1NiIsInR5cCI6IkpXVCJ9.eyJyb2xlIjoiVVNFUiJ9.Bibp8a-_pYZyitTT2Jy41pD12GESwe4x6EiJ1OGVkAI",
							"type": "string"
						}
					]
				},
				"method": "POST",
				"header": [
					{
						"key": "Content-Type",
						"value": "application/json"
					}
				],
				"body": {
					"mode": "raw",
					"raw": "{\n\t\"fname\":\"Abhishek\",\n\t\"lname\":\"Das\",\n\t\"phoneNumber\":\"432\"\n}"
				},
				"url": {
					"raw": "http://localhost:8080/api/v1/tickets/17?open=false",
					"protocol": "http",
					"host": [
						"localhost"
					],
					"port": "8080",
					"path": [
						"api",
						"v1",
						"tickets",
						"17"
					],
					"query": [
						{
							"key": "open",
							"value": "false",
							"equals": true
						}
					]
				},
				"description": ""
			},
			"response": []
		},
		{
			"name": "Open a closed Ticket Booking",
			"request": {
				"auth": {
					"type": "bearer",
					"bearer": [
						{
							"key": "token",
							"value": "eyJhbGciOiJIUzI1NiIsInR5cCI6IkpXVCJ9.eyJyb2xlIjoiVVNFUiJ9.Bibp8a-_pYZyitTT2Jy41pD12GESwe4x6EiJ1OGVkAI",
							"type": "string"
						}
					]
				},
				"method": "PUT",
				"header": [],
				"body": {},
				"url": {
					"raw": "http://localhost:8080/api/v1/tickets/17?open=true",
					"protocol": "http",
					"host": [
						"localhost"
					],
					"port": "8080",
					"path": [
						"api",
						"v1",
						"tickets",
						"17"
					],
					"query": [
						{
							"key": "open",
							"value": "true",
							"equals": true
						}
					]
				},
				"description": ""
			},
			"response": []
		},
		{
			"name": "RESET ALL TICKETS [ADMIN]",
			"request": {
				"auth": {
					"type": "bearer",
					"bearer": [
						{
							"key": "token",
							"value": "eyJhbGciOiJIUzI1NiIsInR5cCI6IkpXVCJ9.eyJyb2xlIjoiQURNSU4ifQ.29eLEIGd2z128wIMmHaMfmN-OeZn2YYJEE6fuxgjmBI",
							"type": "string"
						}
					]
				},
				"method": "PUT",
				"header": [],
				"body": {},
				"url": {
					"raw": "http://localhost:8080/api/v1/tickets?open=true",
					"protocol": "http",
					"host": [
						"localhost"
					],
					"port": "8080",
					"path": [
						"api",
						"v1",
						"tickets"
					],
					"query": [
						{
							"key": "open",
							"value": "true",
							"equals": true
						}
					]
				},
				"description": ""
			},
			"response": []
		},
		{
			"name": "SWAGGER DOCUMENTATION",
			"request": {
				"auth": {
					"type": "bearer",
					"bearer": [
						{
							"key": "token",
							"value": "eyJhbGciOiJIUzI1NiIsInR5cCI6IkpXVCJ9.eyJyb2xlIjoiVVNFUiJ9.Bibp8a-_pYZyitTT2Jy41pD12GESwe4x6EiJ1OGVkAI",
							"type": "string"
						}
					]
				},
				"method": "GET",
				"header": [],
				"body": {},
				"url": {
					"raw": "http://localhost:8080/v2/api-docs",
					"protocol": "http",
					"host": [
						"localhost"
					],
					"port": "8080",
					"path": [
						"v2",
						"api-docs"
					]
				},
				"description": ""
			},
			"response": []
		}
	]
}